…
```
## # A tibble: 104 x 15
##    X1     case  site pop   sex     age  head skull tooth  tail  foot
##    <chr> <dbl> <dbl> <chr> <chr> <dbl> <dbl> <dbl> <dbl> <dbl> <dbl>
##  1 C3        1     1 Vic   m         8  94.1  60.4  89    36    74.5
##  2 C5        2     1 Vic   f         6  92.5  57.6  91.5  36.5  72.5
##  3 C10       3     1 Vic   f         6  94    60    95.5  39    75.4
##  4 C15       4     1 Vic   f         6  93.2  57.1  92    38    76.1
##  5 C23       5     1 Vic   f         2  91.5  56.3  85.5  36    71  
##  6 C24       6     1 Vic   f         1  93.1  54.8  90.5  35.5  73.2
##  7 C26       7     1 Vic   m         2  95.3  58.2  89.5  36    71.5
##  8 C27       8     1 Vic   f         6  94.8  57.6  91    37    72.7
##  9 C28       9     1 Vic   f         9  93.4  56.3  91.5  37    72.4
## 10 C31      10     1 Vic   f         6  91.8  58    89.5  37.5  70.9
## # ... with 94 more rows, and 4 more variables: earconch <dbl>, eye <dbl>,
## #   chest <dbl>, belly <dbl>
```
…
